<?xml version="1.0" encoding="UTF-8" standalone="no"?>
<!-- Created with Inkscape (http://www.inkscape.org/) -->

<svg
   xmlns:dc="http://purl.org/dc/elements/1.1/"
   xmlns:cc="http://creativecommons.org/ns#"
   xmlns:rdf="http://www.w3.org/1999/02/22-rdf-syntax-ns#"
   xmlns:svg="http://www.w3.org/2000/svg"
   xmlns="http://www.w3.org/2000/svg"
   xmlns:sodipodi="http://sodipodi.sourceforge.net/DTD/sodipodi-0.dtd"
   xmlns:inkscape="http://www.inkscape.org/namespaces/inkscape"
   width="168"
   height="168"
   viewBox="0 0 168 168"
   id="svg2"
   version="1.1"
   inkscape:version="0.91 r13725"
   sodipodi:docname="avatar.svg"
   inkscape:export-filename="/home/arvin/projects/web/aid-columbus/assets/avatar.png"
   inkscape:export-xdpi="60.117188"
   inkscape:export-ydpi="60.117188">
  <defs
     id="defs4" />
  <sodipodi:namedview
     id="base"
     pagecolor="#ffffff"
     bordercolor="#666666"
     borderopacity="1.0"
     inkscape:pageopacity="0"
     inkscape:pageshadow="0"
     inkscape:zoom="2.3201941"
     inkscape:cx="76.76957"
     inkscape:cy="128.26224"
     inkscape:document-units="px"
     inkscape:current-layer="layer1"
     units="px"
     showgrid="false"
     inkscape:snap-bbox="true"
     inkscape:bbox-paths="true"
     inkscape:snap-bbox-edge-midpoints="true"
     inkscape:bbox-nodes="true"
     inkscape:snap-bbox-midpoints="true"
     inkscape:object-paths="true"
     inkscape:snap-intersection-paths="true"
     inkscape:object-nodes="true"
     inkscape:snap-smooth-nodes="true"
     inkscape:snap-midpoints="true"
     inkscape:snap-object-midpoints="true"
     inkscape:snap-center="true"
     inkscape:snap-text-baseline="true"
     inkscape:snap-page="true" />
  <metadata
     id="metadata7">
    <rdf:RDF>
      <cc:Work
         rdf:about="">
        <dc:format>image/svg+xml</dc:format>
        <dc:type
           rdf:resource="http://purl.org/dc/dcmitype/StillImage" />
        <dc:title></dc:title>
      </cc:Work>
    </rdf:RDF>
  </metadata>
  <g
     inkscape:label="Layer 1"
     inkscape:groupmode="layer"
     id="layer1"
     transform="translate(0,-912)">
    <path
       style="opacity:1;fill:#aaaaaa;fill-opacity:1;stroke:none;stroke-width:2;stroke-linecap:round;stroke-linejoin:miter;stroke-miterlimit:4;stroke-dasharray:none;stroke-opacity:1"
       d="m 84,912 a 84.000013,84.000013 0 0 0 -84,84 84.000013,84.000013 0 0 0 24.9375,59.6368 l 0,-43.8868 c 0,-8.6625 7.0875,-15.75 15.75,-15.75 l 15.75,0 c 2.3625,5.5125 13.3875,15.75 27.5625,15.75 14.175,0 24.4125,-10.2375 27.5625,-15.75 l 15.75,0 c 8.6625,0 15.75,7.0875 15.75,15.75 l 0,43.9291 A 84.000013,84.000013 0 0 0 168,996 84.000013,84.000013 0 0 0 84,912 Z m 0,21 c 27.5625,0 27.5625,30.7125 27.5625,31.5 0,23.625 -14.175,39.375 -27.5625,39.375 -13.3875,0 -27.5625,-15.75 -27.5625,-39.375 0,-0.7875 0,-31.5 27.5625,-31.5 z"
       id="path3338"
       inkscape:connector-curvature="0" />
  </g>
</svg>
